{
	"extends": ["tslint:latest", "tslint-react"],
	"rules": {
		"no-unused-expression": true,
		"no-duplicate-variable": true,
		"curly": true,
		"class-name": true,
		"triple-equals": true,
		"indent": [true, "spaces"],
		"jsdoc-format": true,
		"member-access": [true, "check-accessor"],
		"member-ordering": [true, {
			"order": [
				"static-field",
				"instance-field",
				"constructor",
				"public-instance-method",
				"protected-instance-method",
				"private-instance-method"
			]
		}],
		"no-magic-numbers": true,
		"unified-signatures": true,
		"no-non-null-assertion": true,
		"no-construct": true,
		"no-debugger": true,
		"no-duplicate-super": true,
		"no-conditional-assignment": true,
		"no-var-keyword": true,
		"no-empty": true,
		"no-eval": true,
		"radix": true,
		"switch-default": true,
		"cyclomatic-complexity": [true, 20],
		"eofline": true,
		"linebreak-style": [true, "LF"],
		"max-classes-per-file": [true, 1],
		"max-file-line-count": [true, 300],
		"max-line-length": [true, 120],
		"prefer-const": true,
		"trailing-comma": [true, {"multiline": "never", "singleline": "never"}],
		"import-spacing": true,
		"interface-name": [true, "always-prefix"],
		"quotemark": [true, "single", "jsx-single"],
		"space-before-function-paren": [true, "always"],
		"no-consecutive-blank-lines": [true, 2],
		"no-require-imports": false,
		"no-var-requires": false,
		"no-trailing-whitespace": true,
		"one-variable-per-declaration": [true, "ignore-for-loop"],
		"ordered-imports": [true, {"import-sources-order": "lowercase-last", "named-imports-order": "lowercase-first"}],
		"arrow-parens": false,
		"jsx-boolean-value": [true, "never"],
		"jsx-curly-spacing": [true, "never"],
    "jsx-no-lambda": false,
    "object-literal-sort-keys": false,
    "no-submodule-imports": false,
    "no-object-literal-type-assertion": false,
    "jsx-no-multiline-js": false
	}
}
